module gitlab.com/msvechla/vaultbot

require (
	cloud.google.com/go v0.32.0 // indirect
	github.com/Azure/go-ansiterm v0.0.0-20170929234023-d6e3b3328b78 // indirect
	github.com/DataDog/datadog-go v0.0.0-20180822151419-281ae9f2d895 // indirect
	github.com/Jeffail/gabs v1.1.1 // indirect
	github.com/Microsoft/go-winio v0.4.11 // indirect
	github.com/NYTimes/gziphandler v1.0.1 // indirect
	github.com/Nvveen/Gotty v0.0.0-20120604004816-cd527374f1e5 // indirect
	github.com/SAP/go-hdb v0.13.1 // indirect
	github.com/SermoDigital/jose v0.9.1 // indirect
	github.com/armon/go-metrics v0.0.0-20180917152333-f0300d1749da // indirect
	github.com/armon/go-radix v1.0.0 // indirect
	github.com/asaskevich/govalidator v0.0.0-20180720115003-f9ffefc3facf // indirect
	github.com/aws/aws-sdk-go v1.15.68
	github.com/beorn7/perks v0.0.0-20180321164747-3a771d992973 // indirect
	github.com/bitly/go-hostpool v0.0.0-20171023180738-a3a6125de932 // indirect
	github.com/bmizerany/assert v0.0.0-20160611221934-b7ed37b82869 // indirect
	github.com/cenkalti/backoff v2.0.0+incompatible // indirect
	github.com/circonus-labs/circonus-gometrics v2.2.4+incompatible // indirect
	github.com/circonus-labs/circonusllhist v0.1.0 // indirect
	github.com/containerd/continuity v0.0.0-20181027224239-bea7585dbfac // indirect
	github.com/denisenkom/go-mssqldb v0.0.0-20181014144952-4e0d7dc8888f // indirect
	github.com/docker/go-connections v0.4.0 // indirect
	github.com/docker/go-units v0.3.3 // indirect
	github.com/duosecurity/duo_api_golang v0.0.0-20181024123116-92fea9203dbc // indirect
	github.com/elazarl/go-bindata-assetfs v1.0.0 // indirect
	github.com/fatih/structs v1.1.0 // indirect
	github.com/go-ldap/ldap v2.5.1+incompatible // indirect
	github.com/go-sql-driver/mysql v1.4.0 // indirect
	github.com/go-test/deep v1.0.1 // indirect
	github.com/gocql/gocql v0.0.0-20181030013202-a84ce58083d3 // indirect
	github.com/gogo/protobuf v1.1.1 // indirect
	github.com/golang/snappy v0.0.0-20180518054509-2e65f85255db // indirect
	github.com/google/go-cmp v0.2.0 // indirect
	github.com/google/go-github v17.0.0+incompatible // indirect
	github.com/google/go-querystring v1.0.0 // indirect
	github.com/gotestyourself/gotestyourself v2.1.0+incompatible // indirect
	github.com/hashicorp/consul v1.3.0 // indirect
	github.com/hashicorp/go-cleanhttp v0.5.0 // indirect
	github.com/hashicorp/go-hclog v0.0.0-20181001195459-61d530d6c27f // indirect
	github.com/hashicorp/go-immutable-radix v1.0.0 // indirect
	github.com/hashicorp/go-memdb v0.0.0-20180223233045-1289e7fffe71 // indirect
	github.com/hashicorp/go-msgpack v0.0.0-20150518234257-fa3f63826f7c // indirect
	github.com/hashicorp/go-multierror v1.0.0 // indirect
	github.com/hashicorp/go-plugin v0.0.0-20181030172320-54b6ff97d818 // indirect
	github.com/hashicorp/go-retryablehttp v0.0.0-20180718195005-e651d75abec6 // indirect
	github.com/hashicorp/go-rootcerts v0.0.0-20160503143440-6bb64b370b90 // indirect
	github.com/hashicorp/go-sockaddr v0.0.0-20180320115054-6d291a969b86 // indirect
	github.com/hashicorp/go-version v1.0.0 // indirect
	github.com/hashicorp/hcl v1.0.0 // indirect
	github.com/hashicorp/memberlist v0.1.0 // indirect
	github.com/hashicorp/serf v0.8.1 // indirect
	github.com/hashicorp/vault v0.11.4
	github.com/hashicorp/vault-plugin-secrets-kv v0.0.0-20180825215324-5a464a61f7de // indirect
	github.com/hashicorp/yamux v0.0.0-20181012175058-2f1d1f20f75d // indirect
	github.com/jefferai/jsonx v0.0.0-20160721235117-9cc31c3135ee // indirect
	github.com/jessevdk/go-flags v1.4.0
	github.com/jmespath/go-jmespath v0.0.0-20180206201540-c2b33e8439af // indirect
	github.com/kami-zh/go-capturer v0.0.0-20171211120116-e492ea43421d
	github.com/keybase/go-crypto v0.0.0-20181031135447-f919bfda4fc1 // indirect
	github.com/kr/pretty v0.1.0 // indirect
	github.com/lib/pq v1.0.0 // indirect
	github.com/matttproud/golang_protobuf_extensions v1.0.1 // indirect
	github.com/miekg/dns v1.0.15 // indirect
	github.com/mitchellh/copystructure v1.0.0 // indirect
	github.com/mitchellh/go-homedir v1.0.0 // indirect
	github.com/mitchellh/go-testing-interface v1.0.0 // indirect
	github.com/mitchellh/mapstructure v1.1.2 // indirect
	github.com/opencontainers/go-digest v1.0.0-rc1 // indirect
	github.com/opencontainers/image-spec v1.0.1 // indirect
	github.com/opencontainers/runc v0.1.1 // indirect
	github.com/ory/dockertest v3.3.2+incompatible // indirect
	github.com/pascaldekloe/goe v0.0.0-20180627143212-57f6aae5913c // indirect
	github.com/patrickmn/go-cache v2.1.0+incompatible // indirect
	github.com/pavel-v-chernykh/keystore-go v2.1.0+incompatible
	github.com/pierrec/lz4 v2.0.5+incompatible // indirect
	github.com/pkg/errors v0.8.0 // indirect
	github.com/prometheus/client_golang v0.9.1 // indirect
	github.com/prometheus/client_model v0.0.0-20180712105110-5c3871d89910 // indirect
	github.com/prometheus/common v0.0.0-20181020173914-7e9e6cabbd39 // indirect
	github.com/prometheus/procfs v0.0.0-20181005140218-185b4288413d // indirect
	github.com/ryanuber/go-glob v0.0.0-20170128012129-256dc444b735 // indirect
	github.com/sean-/seed v0.0.0-20170313163322-e2103e2c3529 // indirect
	github.com/sirupsen/logrus v1.2.0
	github.com/tv42/httpunix v0.0.0-20150427012821-b75d8614f926 // indirect
	golang.org/x/crypto v0.0.0-20181030102418-4d3f4d9ffa16 // indirect
	golang.org/x/net v0.0.0-20181102091132-c10e9556a7bc // indirect
	golang.org/x/oauth2 v0.0.0-20181102170140-232e45548389 // indirect
	golang.org/x/sys v0.0.0-20181031143558-9b800f95dbbc // indirect
	golang.org/x/time v0.0.0-20180412165947-fbb02b2291d2 // indirect
	google.golang.org/appengine v1.3.0 // indirect
	google.golang.org/genproto v0.0.0-20181101192439-c830210a61df // indirect
	google.golang.org/grpc v1.16.0 // indirect
	gopkg.in/asn1-ber.v1 v1.0.0-20170511165959-379148ca0225 // indirect
	gopkg.in/check.v1 v1.0.0-20180628173108-788fd7840127 // indirect
	gopkg.in/ldap.v2 v2.5.1 // indirect
	gopkg.in/mgo.v2 v2.0.0-20180705113604-9856a29383ce // indirect
	gopkg.in/vmihailenco/msgpack.v2 v2.9.1 // indirect
	gopkg.in/yaml.v2 v2.2.1 // indirect
	gotest.tools v2.1.0+incompatible // indirect
)
